wwdata
…
Where are these sites located?

How many samples have been collected in your state?

Which site has collected the most samples? (overall, or in your state)

What is the largest number of samples collected by one site?

ww |> 
  #filter(State_Abbr == 'CA') |> 
  group_by(Plant) |> 
  count() |> 
  arrange(desc(n))

# A tibble: 147 × 2
# Groups:   Plant [147]
   Plant                            n
   <chr>                        <int>
 1 Gilroy, CA                     442
 2 Sacramento, CA                 442
 3 San Jose, CA                   441
 4 Palo Alto, CA                  440
 5 Sunnyvale, CA                  438
 6 Southeast San Francisco, CA    429
 7 Oceanside, San Francisco, CA   424
 8 Redwood City, CA               317
 9 Las Vegas, NV                  203
10 Bloomington, IN                198
# ℹ 137 more rows
…
Go local

Challenges

Look at your local state or local Plant. Filter the results down to your local wastewater. Look at all of the infections over the past year. Plot incidence (Y) vs time (X axis). Consider using geom_line and geom_smooth. What seasonal trends do you see locally?

If you see seasonal trends in one infectious agent, are these pretty much the same across the state, or do they vary regionally? Does RSV (or Noro, or other bugs) arrive later in some regions?

ww |> 
  filter(City == "Ann Arbor") |> 
  mutate(
    date = as.Date(paste0(Year, "-", Month, "-", Day))) 

# A tibble: 190 × 70
   Site_Name  City  State State_Abbr Plant Month   Day  Year
   <chr>      <chr> <chr> <chr>      <chr> <dbl> <dbl> <dbl>
 1 City of A… Ann … Mich… MI         Ann …     7     1  2024
 2 City of A… Ann … Mich… MI         Ann …     7     3  2024
 3 City of A… Ann … Mich… MI         Ann …     7     5  2024
 4 City of A… Ann … Mich… MI         Ann …     7     8  2024
 5 City of A… Ann … Mich… MI         Ann …     7    10  2024
 6 City of A… Ann … Mich… MI         Ann …     7    12  2024
 7 City of A… Ann … Mich… MI         Ann …     7    15  2024
 8 City of A… Ann … Mich… MI         Ann …     7    17  2024
 9 City of A… Ann … Mich… MI         Ann …     7    19  2024
10 City of A… Ann … Mich… MI         Ann …     7    21  2024
# ℹ 180 more rows
# ℹ 62 more variables: Population_Served <dbl>,
#   BCoV_Recovery <dbl>, BCoV_Recovery_LCI <dbl>,
#   BCoV_Recovery_UCI <dbl>, C_auris_gc_g_dry_weight <dbl>,
#   C_auris_gc_g_dry_weight_LCI <dbl>,
#   `C_auris_gc_g_dry_weight_ UCI` <dbl>,
#   EVD68_gc_g_dry_weight <dbl>, …
…
